practica-ployer
…
delitos_2023 <- read_csv(
  "estadisticaspoliciales2023.csv",
  locale = locale(encoding = "WINDOWS-1252")
)

select()

#Ejemplos

# select(penguins, species, bill_length_mm)
penguins |>
  select(species, bill_length_mm, sex)

# A tibble: 344 × 3
   species bill_length_mm sex   
   <fct>            <dbl> <fct> 
 1 Adelie            39.1 male  
 2 Adelie            39.5 female
 3 Adelie            40.3 female
 4 Adelie            NA   <NA>  
 5 Adelie            36.7 female
 6 Adelie            39.3 male  
 7 Adelie            38.9 female
 8 Adelie            39.2 male  
 9 Adelie            34.1 <NA>  
10 Adelie            42   <NA>  
# ℹ 334 more rows
…
